// Jest Snapshot v1, https://goo.gl/fbAQLP

exports[`Inputs is displayed 1`] = `
<span
  className="label"
>
  :
</span>
`;

exports[`Inputs is displayed 2`] = `
<span
  className="label"
>
  :
</span>
`;
